[
  {
    "username": "Scratchyx12",
    "hash": "JZAFV51AZV6514va",
    "price": 1,
    "time": "10:01"
  },
  {
    "username": "Reddji",
    "hash": "IGB182ze98zbD4AZV6514va",
    "price": 0.6,
    "time": "21:10"
  },
  {
    "username": "Coco",
    "hash": "AICOCOc01n88169420zkjn",
    "price": 3,
    "time": "16:45"
  },
  {
    "username": "CURRENT USER",
    "hash": "IHBA41oenjr5BV89AV",
    "price": 15,
    "time": "15:50"
  },
  { "username": "CURRENT USER", "hash": null, "price": 15, "time": "15:50" },
  {
    "username": "CURRENT USER",
    "hash": "IHBA41oenjrf5BV89AV",
    "price": 15,
    "time": "15:50"
  },
  {
    "username": "CURRENT USER",
    "hash": "IHBA41oenjzrf5BV89AV",
    "price": 15,
    "time": "15:50"
  }
]
